cadC	cadC	+
csgD	csgG	+
csgD	csgD	+
cspA	hns	+
dgsA	malT	-
dgsA	dgsA	-
evgA	ydeO	+
evgA	mdtE	+
evgA	evgA	+
evgA	gadE	+
flhC	yhjH	+
flhC	fliK	+
flhD	fliK	+
flhC	mglB	-
flhC	mglC	-
flhC	recC	+
flhC	ppdC	+
flhC	hypF	+
flhC	hydN	+
flhC	fliG	+
flhC	fliH	+
flhC	fliQ	+
flhC	napB	+
flhD	mglB	-
flhD	mglC	-
flhD	recC	+
flhD	ppdC	+
flhD	hypF	+
flhD	hydN	+
flhD	fliG	+
flhD	fliH	+
flhD	fliQ	+
flhD	napB	+
flhD	yhjH	+
fur	cyoD	-
fur	fepE	-
fur	fhuA	-
fur	flhC	-
fur	flhD	-
fur	fepB	-
fur	fur	-
fur	metH	-
fur	metJ	-
fur	ompF	+
fur	purR	-
fur	rcnR	+
fur	rcnA	-
gadE	rcsA	+
gadE	gadE	+
gadE	mdtE	+
gadE	gadW	+
gadE	gadX	+
gadE	gadA	+
gadE	cyoD	+
gadE	lrp	+
gadW	mdtE	+
gadW	gadW	-
gadW	gadX	-
gadW	gadA	-
gadW	gadE	+
gadX	gadE	+
gadX	hns	+
gadX	mdtE	+
gadX	gadA	+
gadX	gadX	+
gadX	gadW	-
gutM	gutM	+
gutM	srlR	+
srlR	gutM	-
srlR	srlR	-
hdfR	flhD	-
hdfR	flhC	-
hns	stpA	-
hns	gadW	-
hns	gadX	-
hns	alaU	-
hns	fepE	+
hns	fimA	+
hns	fimD	+
hns	flhC	+
hns	flhD	+
hns	hns	-
hns	leuO	-
hns	rcsA	-
hns	gutM	+
hns	srlR	+
hns	nhaR	-
hns	gltU	-
hns	gltW	-
hns	ileV	-
hns	rrfD	-
hns	rrfG	-
hns	rrlB	-
hns	rrlG	-
hns	rrsD	-
hns	rrsG	-
hns	gadA	-
hns	caiF	-
hns	yjjQ	-
hns	bglJ	-
hns	appY	-
hns	bolA	-
leuO	bglJ	+
leuO	cadC	-
leuO	leuO	+
leuO	yjjQ	+
lrhA	lrhA	+
lrhA	flhD	-
lrhA	flhC	-
lrp	alaU	-
lrp	gltU	-
lrp	gltW	-
lrp	ileV	-
lrp	rrfD	-
lrp	rrfG	-
lrp	rrlB	-
lrp	rrlG	-
lrp	rrsD	-
lrp	rrsG	-
lrp	fimA	+
lrp	fimD	+
lrp	lrp	-
lrp	malT	+
lrp	ompF	+
lrp	stpA	+
lrp	yeiL	+
malT	malZ	+
marA	ybaO	+
marA	marR	+
marA	marA	+
marA	rob	-
marA	poxB	+
marA	putA	+
marR	marA	-
marR	marR	-
metJ	metF	-
metJ	metR	-
metJ	ahpC	-
metJ	metQ	-
metJ	metC	-
metR	metR	-
metR	metH	+
narL	narH	+
narL	nikR	-
narL	napB	-
narL	caiF	-
nemR	nemR	-
nhaR	nhaR	+
nikR	nikR	-
ompR	csgD	+
ompR	csgG	+
ompR	ompF	-
ompR	flhD	-
ompR	flhC	-
ompR	bolA	-
oxyR	ahpC	+
oxyR	oxyR	-
oxyR	fur	+
phoP	mgtA	+
phoP	rutG	+
phoP	rstA	+
phoP	phoP	+
phoP	treR	-
purR	purB	-
purR	speA	-
purR	purR	-
putA	putA	-
qseB	flhC	+
qseB	qseB	+
qseB	flhD	+
rcnR	rcnR	-
rcnR	rcnA	-
rcsA	rcsA	+
rcsA	yjbF	+
rcsA	csgG	-
rcsA	csgD	-
rcsB	flhC	-
rcsB	flhD	-
rcsB	rcsA	+
rcsB	yjbF	+
rcsB	csgG	-
rcsB	csgD	-
rcsA	flhD	-
rcsA	flhC	-
rob	mltF	+
rob	marA	+
rob	marR	+
rstA	ompF	-
rstA	narH	+
rstA	csgD	-
rstA	csgG	-
rutR	nemR	-
rutR	rutG	-
rutR	rutR	-
rutR	gadX	-
rutR	gadW	-
rutR	fepB	-
soxR	soxR	-
soxR	soxS	+
soxS	marA	+
soxS	marR	+
soxS	soxS	-
soxS	poxB	+
soxS	fur	+
soxS	fldA	+
stpA	stpA	-
torR	gadA	-
torR	torR	-
torR	gadX	-
ydeO	mdtE	+
ydeO	gadE	+
yeiL	yeiL	+
