bolA	ampC	+
cadC	cadC	+
csgD	csgD	+
csgD	csgE	+
cspA	hns	+
dgsA	malT	-
dgsA	dgsA	-
dsdC	dsdC	-
evgA	mdtF	+
evgA	yneN	+
evgA	evgS	+
evgA	evgA	+
evgA	gadE	+
fhlA	hyfJ	+
fhlA	hyfR	+
fhlA	fhlA	+
flhC	gltJ	+
flhC	gltK	+
flhC	ycgR	+
flhD	ycgR	+
flhC	fliD	+
flhC	ppdB	+
flhC	fliF	+
flhC	fliP	+
flhC	ccmG	+
flhC	ccmC	+
flhC	ccmB	+
flhC	ccmA	+
flhC	napH	+
flhC	napG	+
flhC	ccmD	+
flhD	fliD	+
flhD	ppdB	+
flhD	fliF	+
flhD	fliP	+
flhD	ccmG	+
flhD	ccmC	+
flhD	ccmB	+
flhD	ccmA	+
flhD	napH	+
flhD	napG	+
flhD	ccmD	+
flhD	gltJ	+
flhD	gltK	+
fur	cyoC	-
fur	cyoD	-
fur	fepG	-
fur	fes	-
fur	fhuC	-
fur	flhC	-
fur	flhD	-
fur	fepB	-
fur	fur	-
fur	metJ	-
fur	purR	-
fur	ftnA	+
fur	entS	-
fur	gpmA	-
fur	rcnR	+
gadE	rcsA	+
gadE	hdeB	+
gadE	yhiD	+
gadE	hdeD	+
gadE	gadE	+
gadE	mdtF	+
gadE	gadW	+
gadE	gadX	+
gadE	gadA	+
gadE	cyoC	+
gadE	cyoD	+
gadE	lrp	+
gadW	mdtF	+
gadW	gadW	-
gadW	gadX	-
gadW	gadA	-
gadW	hdeB	+
gadW	yhiD	+
gadW	gadE	+
gadX	gadE	+
gadX	hns	+
gadX	yhiD	+
gadX	hdeB	-
gadX	hdeD	+
gadX	mdtF	+
gadX	gadA	+
gadX	gadX	+
gadX	gadW	-
gutM	srlB	+
gutM	srlD	+
gutM	gutM	+
gutM	srlR	+
srlR	srlB	-
srlR	srlD	-
srlR	gutM	-
srlR	srlR	-
hdfR	flhD	-
hdfR	flhC	-
hns	hdeB	-
hns	yhiD	-
hns	hdeD	-
hns	stpA	-
hns	gadW	-
hns	gadX	-
hns	fes	+
hns	fimH	+
hns	flhC	+
hns	flhD	+
hns	hns	-
hns	leuO	-
hns	proX	-
hns	rcsA	-
hns	ftnA	-
hns	srlB	+
hns	srlD	+
hns	gutM	+
hns	srlR	+
hns	nhaR	-
hns	alaV	-
hns	gltW	-
hns	rrlD	-
hns	rrsH	-
hns	gadA	-
hns	caiF	-
hns	bglJ	-
hns	appY	-
hns	bolA	-
hyfR	hyfR	+
hyfR	hyfJ	+
leuO	bglJ	+
leuO	cadC	-
leuO	leuO	+
leuO	leuC	+
lrhA	lrhA	+
lrhA	flhD	-
lrhA	flhC	-
lrp	alaV	-
lrp	gltW	-
lrp	rrlD	-
lrp	rrsH	-
lrp	fimH	+
lrp	lrp	-
lrp	malT	+
lrp	hdeB	-
lrp	yhiD	-
lrp	stpA	+
lrp	yeiL	+
marR	marR	-
metJ	metR	-
metJ	folE	-
metR	metR	-
nemR	nemA	-
nemR	nemR	-
nhaR	nhaR	+
norR	norR	-
nsrR	wzxE	-
nsrR	norR	-
nsrR	dsdC	-
nsrR	feaR	-
nsrR	ydhO	-
nsrR	fhlA	-
nsrR	lrp	-
ompR	csgD	+
ompR	sra	-
ompR	flhD	-
ompR	flhC	-
ompR	bolA	-
ompR	csgE	+
oxyR	oxyR	-
oxyR	fur	+
purR	carB	-
purR	purR	-
qseB	flhC	+
qseB	qseB	+
qseB	flhD	+
rcnR	rcnR	-
rcsA	ftsA	+
rcsA	ftsZ	+
rcsA	rcsA	+
rcsA	sra	+
rcsA	yjbG	+
rcsA	csgE	-
rcsA	csgD	-
rcsB	flhC	-
rcsB	flhD	-
rcsB	ftsA	+
rcsB	ftsZ	+
rcsB	rcsA	+
rcsB	sra	+
rcsB	yjbG	+
rcsB	csgE	-
rcsB	csgD	-
rcsA	flhD	-
rcsA	flhC	-
rstA	csgD	-
rstA	csgE	-
rutR	nemR	-
rutR	rutR	-
rutR	gadX	-
rutR	gadW	-
rutR	fepB	-
rutR	carB	+
rutR	nemA	-
soxR	soxR	-
soxR	soxS	+
soxS	marR	+
soxS	soxS	-
soxS	fur	+
stpA	stpA	-
torR	gadA	-
torR	torR	-
torR	gadX	-
torR	yhiD	+
torR	hdeB	+
yeiL	yeiL	+
