araC	araC	-
araC	araD	+
araC	xylB	-
araC	araH	+
araC	araJ	+
araC	araG	+
caiF	caiA	+
caiF	fixX	+
chbR	chbB	-
chbR	chbR	+
crp	hyfD	+
crp	hyfF	+
crp	hyfR	+
crp	glcC	+
crp	dcuR	+
crp	idnR	+
crp	uxaA	+
crp	exuT	+
crp	dctA	+
crp	uxuR	+
crp	xylR	+
crp	cyaR	+
crp	caiF	+
crp	prpR	+
crp	feaR	+
crp	lsrR	+
crp	dgsA	+
crp	yeiT	+
crp	rbsR	+
crp	rhaR	+
crp	dcuB	+
crp	aceE	+
crp	araC	+
crp	araD	+
crp	araG	+
crp	araH	+
crp	araJ	-
crp	chbB	+
crp	chbR	+
crp	crp	+
crp	cyoE	+
crp	cytR	+
crp	hupB	+
crp	zraR	+
crp	malF	+
crp	malI	-
crp	malT	+
crp	ompR	+
crp	oxyR	+
crp	rbsB	+
crp	rbsC	+
crp	caiA	+
crp	fixX	+
crp	marB	+
crp	uidB	+
crp	mtlR	+
crp	galP	+
crp	idnK	+
crp	gadX	-
crp	yiaJ	-
crp	glpR	+
crp	glpT	+
crp	hupA	+
crp	tdcA	+
crp	tnaA	+
crp	xylB	+
crp	pdhR	+
crp	melR	+
crp	malS	+
crp	marA	+
crp	marR	+
crp	glpX	+
crp	fecA	+
crp	fucA	+
crp	fucR	+
crp	galS	+
crp	glnG	-
crp	rhaS	+
crp	sodA	+
crp	gutM	+
crp	srlR	+
crp	deoC	+
cytR	cytR	-
cytR	deoC	-
dcuR	dcuB	+
dcuR	dctA	+
dgsA	malT	-
dgsA	dgsA	-
exuR	uxaA	-
exuR	exuT	-
exuR	exuR	-
exuR	uxuR	-
fhlA	hycB	+
fhlA	hycD	+
fhlA	hycE	+
fhlA	hypE	+
fhlA	hyfD	+
fhlA	hyfF	+
fhlA	hyfR	+
fhlA	fhlA	+
fucR	fucA	+
fucR	fucR	+
gadX	yhiD	-
gadX	lon	+
gadX	slp	+
gadX	gadX	+
galR	galP	-
galR	galS	-
galR	galR	-
galS	galP	-
galS	galS	-
galS	galR	-
glcC	glcC	-
glpR	glpX	-
glpR	glpT	-
gntR	idnR	-
gntR	idnK	-
gutM	gutM	+
gutM	srlR	+
srlR	gutM	-
srlR	srlR	-
hupB	tyrP	-
hupA	tyrP	-
hyfR	hyfR	+
hyfR	hyfF	+
hyfR	hyfD	+
idnR	idnR	+
idnR	idnK	+
lsrR	lsrR	-
malI	malI	-
malT	malF	+
malT	malS	+
marA	slp	-
marA	acrA	+
marA	marB	+
marA	marR	+
marA	marA	+
marA	yhiD	-
marA	rob	-
marA	putA	+
marA	sodA	+
marR	marA	-
marR	marB	-
marR	marR	-
melR	melR	+
mtlR	mtlR	-
norR	norR	-
nsrR	wzzE	-
nsrR	yfhB	-
nsrR	norR	-
nsrR	feaR	-
nsrR	ydhO	-
nsrR	aceE	-
nsrR	fhlA	-
nsrR	hycB	-
nsrR	hycD	-
nsrR	hycE	-
nsrR	hypE	-
glnG	glnG	+
glnG	ddpA	+
ompR	omrA	+
ompR	bolA	-
oxyR	oxyR	-
pdhR	aceE	-
pdhR	cyoE	-
pdhR	fecA	+
pdhR	pdhR	-
prpR	prpR	-
putA	putA	-
rbsR	rbsB	-
rbsR	rbsR	-
rbsR	rbsC	-
rhaR	rhaR	+
rhaR	rhaS	+
rhaS	rhaS	+
rhaS	rhaR	+
rob	aslB	+
rob	sodA	+
rob	mltF	+
rob	marA	+
rob	marR	+
rob	marB	+
rob	acrA	+
rob	ybiS	+
tdcA	tdcA	+
tdcR	tdcA	+
torR	torR	-
torR	gadX	-
torR	yhiD	+
torR	tnaA	+
uxuR	uidB	-
uxuR	uxuR	-
xylR	xylR	+
xylR	xylB	+
zraR	zraR	+
