Method1,Method2,SNR,Size,P-value
LSCO,LSCO,0.01,100,1.0
LSCO,RidgeCO,0.01,100,0.6904761904761905
LSCO,LASSO,0.01,100,0.2222222222222222
LSCO,GENIE3,0.01,100,0.0079365079365079
LSCO,CLR,0.01,100,0.0079365079365079
LSCO,LSCON,0.01,100,0.2222222222222222
RidgeCO,LSCO,0.01,100,0.6904761904761905
RidgeCO,RidgeCO,0.01,100,1.0
RidgeCO,LASSO,0.01,100,0.1507936507936507
RidgeCO,GENIE3,0.01,100,0.0079365079365079
RidgeCO,CLR,0.01,100,0.0079365079365079
RidgeCO,LSCON,0.01,100,0.1507936507936507
LASSO,LSCO,0.01,100,0.2222222222222222
LASSO,RidgeCO,0.01,100,0.1507936507936507
LASSO,LASSO,0.01,100,1.0
LASSO,GENIE3,0.01,100,0.0079365079365079
LASSO,CLR,0.01,100,0.0079365079365079
LASSO,LSCON,0.01,100,1.0
GENIE3,LSCO,0.01,100,0.0079365079365079
GENIE3,RidgeCO,0.01,100,0.0079365079365079
GENIE3,LASSO,0.01,100,0.0079365079365079
GENIE3,GENIE3,0.01,100,1.0
GENIE3,CLR,0.01,100,0.6904761904761905
GENIE3,LSCON,0.01,100,0.0079365079365079
CLR,LSCO,0.01,100,0.0079365079365079
CLR,RidgeCO,0.01,100,0.0079365079365079
CLR,LASSO,0.01,100,0.0079365079365079
CLR,GENIE3,0.01,100,0.6904761904761905
CLR,CLR,0.01,100,1.0
CLR,LSCON,0.01,100,0.0079365079365079
LSCON,LSCO,0.01,100,0.2222222222222222
LSCON,RidgeCO,0.01,100,0.1507936507936507
LSCON,LASSO,0.01,100,1.0
LSCON,GENIE3,0.01,100,0.0079365079365079
LSCON,CLR,0.01,100,0.0079365079365079
LSCON,LSCON,0.01,100,1.0
