Method,degree_med
lsco,1
lsco,0
lsco,0
lsco,0
lsco,1
lsco,0
lsco,0
lsco,0
lsco,0
lsco,0
lsco,1
lsco,0
lsco,1
lsco,0
lsco,0
lsco,0
lsco,0
lsco,0
lsco,0
lsco,0
lsco,0
lsco,0
lsco,0
lsco,0
lsco,0
lsco,0
lsco,0
lsco,0
lsco,0
lsco,5
lsco,0
lsco,0
lsco,1
lsco,0
lsco,1
lsco,0
lsco,1
lsco,0
lsco,0
lsco,0
lsco,0
lsco,0
lsco,0
lsco,0
lsco,0
lsco,1
lsco,0
lsco,1
lsco,0
lsco,0
lsco,0
lsco,1
lsco,0
lsco,0
lsco,1
lsco,0
lsco,0
lsco,0
lsco,0
lsco,0
lsco,12
lsco,0
lsco,0
lsco,0
lsco,0
lsco,0
lsco,0
lsco,0
lsco,1
lsco,0
lsco,1
lsco,1
lsco,0
lsco,0
lsco,0
lsco,0
lsco,0
lsco,0
lsco,0
lsco,0
lsco,0
lsco,2
lsco,1
lsco,0
lsco,0
lsco,0
lsco,0
lsco,0
lsco,0
lsco,0
lsco,0
lsco,0
lsco,0
lsco,0
lsco,0
lsco,1
lsco,0
lsco,0
lsco,0
lsco,0
lsco,0
lsco,0
lsco,0
lsco,0
lsco,0
lsco,0
lsco,0
lsco,0
lsco,0
lsco,0
lsco,0
lsco,1
lsco,0
lsco,1
lsco,0
lsco,0
lsco,0
lsco,0
lsco,0
lsco,0
lsco,0
lsco,0
lsco,0
lsco,0
lsco,0
lsco,0
lsco,1
lsco,0
lsco,0
lsco,9
lsco,0
lsco,0
lsco,0
lsco,0
lsco,0
lsco,4
lsco,0
lsco,0
lsco,0
lsco,1
lsco,0
lsco,0
lsco,1
lsco,0
lsco,39
lsco,0
lsco,1
lsco,0
lsco,0
lsco,0
lsco,0
lsco,0
lsco,0
lsco,1
lsco,0
lsco,31
lsco,0
lsco,0
lsco,8
lsco,0
lsco,0
lsco,0
lsco,0
lsco,0
lsco,0
lsco,0
lsco,0
lsco,92
lsco,1
lsco,0
lsco,1
lsco,12
lsco,0
lsco,0
lsco,7
lsco,2
lsco,0
lsco,0
lsco,1
lsco,29
lsco,0
lsco,0
lsco,0
lsco,0
lsco,1
lsco,4
lsco,0
lsco,1
lsco,0
lsco,0
lsco,0
lsco,0
lsco,1
lsco,0
lsco,0
lsco,0
lsco,0
lsco,3
lsco,0
lsco,0
lsco,5
lsco,0
lsco,0
lsco,3
lsco,1
lsco,2
lsco,0
lsco,1
lsco,0
lsco,0
lsco,0
lsco,0
lsco,0
lsco,4
lsco,16
lsco,0
lsco,1
lsco,0
lsco,10
lsco,13
lsco,4
lsco,1
lsco,0
lsco,0
lsco,0
lsco,2
lsco,0
lsco,1
lsco,0
lsco,0
lsco,0
lsco,0
lsco,0
lsco,10
lsco,9
lsco,0
lsco,1
lsco,18
lsco,0
lsco,0
lsco,1
lsco,0
lsco,0
lsco,1
lsco,0
lsco,0
lsco,0
lsco,0
lsco,0
lsco,0
lsco,0
lsco,0
lsco,0
lsco,0
lsco,4
lsco,0
lsco,0
lsco,0
lsco,0
lsco,0
lsco,0
lsco,0
lsco,1
lsco,0
lsco,0
lsco,0
lsco,5
lsco,2
lsco,0
lsco,0
lsco,0
lsco,1
lsco,0
lsco,0
lsco,1
lsco,1
lsco,0
lsco,0
lsco,0
lsco,0
lsco,1
lsco,0
lsco,0
lsco,0
lsco,1
lsco,1
lsco,0
lsco,0
lsco,0
lsco,0
lsco,1
lsco,0
lsco,0
lsco,0
lsco,0
lsco,0
lsco,0
lsco,0
lsco,0
lsco,0
lsco,0
lsco,0
lsco,0
lsco,0
lsco,0
lsco,0
lsco,0
lsco,0
lsco,0
lsco,0
lsco,1
lsco,0
lsco,1
lsco,0
lsco,0
lsco,0
lsco,0
lsco,0
lsco,0
lsco,0
lsco,0
lsco,0
lsco,1
lsco,0
lsco,0
lsco,0
lsco,0
lsco,0
lsco,0
lsco,1
lsco,0
lsco,0
lsco,0
lsco,0
lsco,0
lsco,0
lsco,0
lsco,0
lsco,0
lsco,0
lsco,0
lsco,1
lsco,0
lsco,0
lsco,0
lsco,0
lsco,1
lsco,0
lsco,0
lsco,0
lsco,0
lsco,0
lsco,0
lsco,0
lsco,0
lsco,0
lsco,0
lsco,0
lsco,0
lsco,0
lsco,0
lsco,0
lsco,0
lsco,0
lsco,0
lsco,0
lsco,0
lsco,0
lsco,0
lsco,6
lsco,0
lsco,1
lsco,0
lsco,0
lsco,3
lsco,0
lsco,0
lsco,1
lsco,0
lsco,0
lsco,0
lsco,1
lsco,1
lsco,0
lsco,16
lsco,0
lsco,0
lsco,0
lsco,0
lsco,0
lsco,0
lsco,0
lsco,0
lsco,0
lsco,8
lsco,0
lsco,0
lsco,0
lsco,0
lsco,0
lsco,0
lsco,0
lsco,0
lsco,0
lsco,0
lsco,0
lsco,0
lsco,7
lsco,0
lsco,0
lsco,0
lsco,0
lsco,0
lsco,0
lsco,0
lsco,0
lsco,0
lsco,0
lsco,0
lsco,0
lsco,0
lsco,0
lsco,1
lsco,1
lsco,2
lsco,0
lsco,1
lsco,1
lsco,1
lsco,0
lsco,0
lsco,0
lsco,0
lsco,1
lsco,1
lsco,0
lsco,1
lsco,0
lsco,1
lsco,12
lsco,0
lsco,1
lsco,0
lsco,2
lsco,1
lsco,0
lsco,0
lsco,0
lsco,1
lsco,0
lsco,1
lsco,0
lsco,0
lsco,0
lsco,0
lsco,0
lsco,0
lsco,0
lsco,0
lsco,0
lsco,0
lsco,0
lsco,0
lsco,0
lsco,2
lsco,0
lsco,0
lsco,0
lsco,1
lsco,0
lsco,0
lsco,1
lsco,0
lsco,0
lsco,0
lsco,0
lsco,0
lsco,1
lsco,0
lsco,0
lsco,0
lsco,1
lsco,0
lsco,0
lsco,13
lsco,0
lsco,5
lsco,0
lsco,0
lsco,1
lsco,1
lsco,0
lsco,0
lsco,0
lsco,1
lsco,7
lsco,0
lsco,3
lsco,0
lsco,0
lsco,14
lsco,1
lsco,1
lsco,5
lsco,0
lsco,0
lsco,1
lsco,0
lsco,0
lsco,0
lsco,1
lsco,0
lsco,0
lsco,9
lsco,0
lsco,0
lsco,0
lsco,0
lsco,1
lsco,0
lsco,0
lsco,0
lsco,0
lsco,0
lsco,0
lsco,0
lsco,0
lsco,0
lsco,0
lsco,0
lsco,1
lsco,2
lsco,0
lsco,0
lsco,1
lsco,0
lsco,0
lsco,0
lsco,0
lsco,4
lsco,0
lsco,0
lsco,1
lsco,1
lsco,0
lsco,0
lsco,0
lsco,0
lsco,0
lsco,0
lsco,0
lsco,0
lsco,3
lsco,1
lsco,0
lsco,0
lsco,0
lsco,1
lsco,0
lsco,0
lsco,0
lsco,0
lsco,1
lsco,0
lsco,0
lsco,1
lsco,0
lsco,5
lsco,0
lsco,0
lsco,0
lsco,13
lsco,0
lsco,17
lsco,0
lsco,0
lsco,2
lsco,0
lsco,0
lsco,1
lsco,0
lsco,0
lsco,0
lsco,0
lsco,0
lsco,0
lsco,0
lsco,0
lsco,0
lsco,0
lsco,0
lsco,0
lsco,0
lsco,0
lsco,0
lsco,2
lsco,1
lsco,0
lsco,23
lsco,0
lsco,0
lsco,4
lsco,0
lsco,0
lsco,1
lsco,0
lsco,0
lsco,0
lsco,0
lsco,0
lsco,0
lsco,0
lsco,1
lsco,0
lsco,0
lsco,4
lsco,0
lsco,1
lsco,1
lsco,0
lsco,0
lsco,0
lsco,1
lsco,47
lsco,0
lsco,12
lsco,8
lsco,6
lsco,0
lsco,15
lsco,0
lsco,0
lsco,0
lsco,0
lsco,0
lsco,0
lsco,0
lsco,0
lsco,0
lsco,0
lsco,0
lsco,0
lsco,0
lsco,0
lsco,0
lsco,0
lsco,0
lsco,0
lsco,0
lsco,0
lsco,1
lsco,0
lsco,1
lsco,0
lsco,0
lsco,0
lsco,0
lsco,0
lsco,0
lsco,0
lsco,0
lsco,1
lsco,0
lsco,8
lsco,0
lsco,0
lsco,34
lsco,0
lsco,0
lsco,0
lsco,0
lsco,0
lsco,0
lsco,1
lsco,0
lsco,1
lsco,0
lsco,0
lsco,0
lsco,0
lsco,0
lsco,1
lsco,1
lsco,10
lsco,0
lsco,0
lsco,1
lsco,0
lsco,0
lsco,0
lsco,0
lsco,0
lsco,0
lsco,30
lsco,0
lsco,0
lsco,0
lsco,0
lsco,0
lsco,0
lsco,0
lsco,0
lsco,1
lsco,1
lsco,2
lsco,0
lsco,23
lsco,0
lsco,0
lsco,0
lsco,0
lsco,0
lsco,0
lsco,0
lsco,0
lsco,0
lsco,0
lsco,0
lsco,0
lsco,0
lsco,0
lsco,0
lsco,0
lsco,0
lsco,0
lsco,0
lsco,8
lsco,0
lsco,0
lsco,0
lsco,0
lsco,0
lsco,0
lsco,0
lsco,0
lsco,0
lsco,0
lsco,0
lsco,0
lsco,0
lsco,0
lsco,0
lsco,0
lsco,0
Glmnet,4
Glmnet,3
Glmnet,1
Glmnet,0
Glmnet,2
Glmnet,3
Glmnet,6
Glmnet,5
Glmnet,3
Glmnet,2
Glmnet,2
Glmnet,0
Glmnet,6
Glmnet,2
Glmnet,1
Glmnet,3
Glmnet,3
Glmnet,1
Glmnet,2
Glmnet,2
Glmnet,4
Glmnet,0
Glmnet,1
Glmnet,0
Glmnet,1
Glmnet,3
Glmnet,4
Glmnet,7
Glmnet,11
Glmnet,0
Glmnet,9
Glmnet,0
Glmnet,1
Glmnet,1
Glmnet,3
Glmnet,6
Glmnet,2
Glmnet,2
Glmnet,1
Glmnet,1
Glmnet,4
Glmnet,7
Glmnet,4
Glmnet,2
Glmnet,2
Glmnet,2
Glmnet,4
Glmnet,2
Glmnet,6
Glmnet,1
Glmnet,1
Glmnet,13
Glmnet,6
Glmnet,1
Glmnet,6
Glmnet,7
Glmnet,6
Glmnet,1
Glmnet,2
Glmnet,7
Glmnet,2
Glmnet,1
Glmnet,5
Glmnet,4
Glmnet,2
Glmnet,5
Glmnet,0
Glmnet,0
Glmnet,11
Glmnet,7
Glmnet,5
Glmnet,5
Glmnet,2
Glmnet,2
Glmnet,1
Glmnet,2
Glmnet,2
Glmnet,3
Glmnet,4
Glmnet,4
Glmnet,1
Glmnet,2
Glmnet,11
Glmnet,1
Glmnet,7
Glmnet,6
Glmnet,4
Glmnet,2
Glmnet,7
Glmnet,8
Glmnet,3
Glmnet,3
Glmnet,3
Glmnet,5
Glmnet,2
Glmnet,2
Glmnet,2
Glmnet,1
Glmnet,4
Glmnet,3
Glmnet,8
Glmnet,5
Glmnet,2
Glmnet,3
Glmnet,5
Glmnet,0
Glmnet,9
Glmnet,2
Glmnet,5
Glmnet,1
Glmnet,1
Glmnet,1
Glmnet,1
Glmnet,5
Glmnet,1
Glmnet,1
Glmnet,4
Glmnet,2
Glmnet,1
Glmnet,2
Glmnet,0
Glmnet,3
Glmnet,2
Glmnet,2
Glmnet,0
Glmnet,2
Glmnet,6
Glmnet,1
Glmnet,5
Glmnet,2
Glmnet,3
Glmnet,2
Glmnet,1
Glmnet,1
Glmnet,5
Glmnet,2
Glmnet,5
Glmnet,2
Glmnet,1
Glmnet,4
Glmnet,0
Glmnet,2
Glmnet,2
Glmnet,0
Glmnet,0
Glmnet,1
Glmnet,9
Glmnet,4
Glmnet,5
Glmnet,8
Glmnet,5
Glmnet,5
Glmnet,4
Glmnet,4
Glmnet,3
Glmnet,1
Glmnet,2
Glmnet,0
Glmnet,2
Glmnet,4
Glmnet,0
Glmnet,4
Glmnet,8
Glmnet,6
Glmnet,0
Glmnet,4
Glmnet,1
Glmnet,1
Glmnet,10
Glmnet,3
Glmnet,4
Glmnet,5
Glmnet,5
Glmnet,2
Glmnet,2
Glmnet,2
Glmnet,1
Glmnet,1
Glmnet,7
Glmnet,5
Glmnet,4
Glmnet,2
Glmnet,5
Glmnet,0
Glmnet,11
Glmnet,1
Glmnet,6
Glmnet,7
Glmnet,4
Glmnet,5
Glmnet,4
Glmnet,1
Glmnet,4
Glmnet,3
Glmnet,8
Glmnet,0
Glmnet,1
Glmnet,7
Glmnet,5
Glmnet,2
Glmnet,7
Glmnet,6
Glmnet,7
Glmnet,3
Glmnet,1
Glmnet,10
Glmnet,4
Glmnet,8
Glmnet,3
Glmnet,1
Glmnet,0
Glmnet,5
Glmnet,9
Glmnet,3
Glmnet,1
Glmnet,0
Glmnet,3
Glmnet,3
Glmnet,2
Glmnet,3
Glmnet,0
Glmnet,3
Glmnet,1
Glmnet,3
Glmnet,3
Glmnet,3
Glmnet,2
Glmnet,13
Glmnet,3
Glmnet,1
Glmnet,6
Glmnet,0
Glmnet,0
Glmnet,7
Glmnet,2
Glmnet,3
Glmnet,4
Glmnet,3
Glmnet,2
Glmnet,2
Glmnet,5
Glmnet,3
Glmnet,5
Glmnet,6
Glmnet,1
Glmnet,1
Glmnet,0
Glmnet,1
Glmnet,3
Glmnet,7
Glmnet,2
Glmnet,6
Glmnet,2
Glmnet,4
Glmnet,1
Glmnet,0
Glmnet,0
Glmnet,2
Glmnet,4
Glmnet,9
Glmnet,7
Glmnet,4
Glmnet,9
Glmnet,5
Glmnet,0
Glmnet,6
Glmnet,0
Glmnet,7
Glmnet,5
Glmnet,4
Glmnet,1
Glmnet,3
Glmnet,4
Glmnet,9
Glmnet,9
Glmnet,13
Glmnet,4
Glmnet,0
Glmnet,10
Glmnet,12
Glmnet,7
Glmnet,2
Glmnet,1
Glmnet,7
Glmnet,2
Glmnet,1
Glmnet,2
Glmnet,4
Glmnet,7
Glmnet,1
Glmnet,4
Glmnet,2
Glmnet,1
Glmnet,4
Glmnet,3
Glmnet,6
Glmnet,0
Glmnet,7
Glmnet,9
Glmnet,0
Glmnet,0
Glmnet,7
Glmnet,3
Glmnet,4
Glmnet,6
Glmnet,8
Glmnet,5
Glmnet,8
Glmnet,4
Glmnet,1
Glmnet,3
Glmnet,1
Glmnet,5
Glmnet,1
Glmnet,0
Glmnet,5
Glmnet,5
Glmnet,5
Glmnet,2
Glmnet,5
Glmnet,0
Glmnet,3
Glmnet,6
Glmnet,2
Glmnet,1
Glmnet,5
Glmnet,2
Glmnet,1
Glmnet,2
Glmnet,8
Glmnet,5
Glmnet,8
Glmnet,2
Glmnet,9
Glmnet,5
Glmnet,1
Glmnet,6
Glmnet,8
Glmnet,0
Glmnet,3
Glmnet,3
Glmnet,7
Glmnet,3
Glmnet,0
Glmnet,8
Glmnet,3
Glmnet,4
Glmnet,3
Glmnet,7
Glmnet,4
Glmnet,2
Glmnet,3
Glmnet,0
Glmnet,1
Glmnet,3
Glmnet,2
Glmnet,5
Glmnet,4
Glmnet,1
Glmnet,1
Glmnet,4
Glmnet,7
Glmnet,26
Glmnet,4
Glmnet,2
Glmnet,2
Glmnet,2
Glmnet,3
Glmnet,2
Glmnet,2
Glmnet,0
Glmnet,3
Glmnet,1
Glmnet,5
Glmnet,6
Glmnet,3
Glmnet,1
Glmnet,11
Glmnet,3
Glmnet,0
Glmnet,8
Glmnet,9
Glmnet,9
Glmnet,3
Glmnet,1
Glmnet,1
Glmnet,2
Glmnet,1
Glmnet,5
Glmnet,2
Glmnet,1
Glmnet,3
Glmnet,4
Glmnet,2
Glmnet,2
Glmnet,4
Glmnet,2
Glmnet,2
Glmnet,4
Glmnet,3
Glmnet,0
Glmnet,4
Glmnet,1
Glmnet,5
Glmnet,3
Glmnet,3
Glmnet,5
Glmnet,1
Glmnet,10
Glmnet,2
Glmnet,1
Glmnet,4
Glmnet,2
Glmnet,3
Glmnet,0
Glmnet,2
Glmnet,5
Glmnet,13
Glmnet,3
Glmnet,1
Glmnet,3
Glmnet,4
Glmnet,2
Glmnet,7
Glmnet,13
Glmnet,12
Glmnet,3
Glmnet,4
Glmnet,3
Glmnet,5
Glmnet,1
Glmnet,2
Glmnet,3
Glmnet,16
Glmnet,9
Glmnet,3
Glmnet,8
Glmnet,1
Glmnet,5
Glmnet,1
Glmnet,0
Glmnet,5
Glmnet,7
Glmnet,4
Glmnet,7
Glmnet,1
Glmnet,0
Glmnet,1
Glmnet,5
Glmnet,4
Glmnet,1
Glmnet,10
Glmnet,0
Glmnet,0
Glmnet,2
Glmnet,2
Glmnet,11
Glmnet,2
Glmnet,2
Glmnet,3
Glmnet,6
Glmnet,0
Glmnet,3
Glmnet,6
Glmnet,1
Glmnet,3
Glmnet,3
Glmnet,4
Glmnet,3
Glmnet,7
Glmnet,4
Glmnet,4
Glmnet,0
Glmnet,1
Glmnet,0
Glmnet,3
Glmnet,3
Glmnet,9
Glmnet,2
Glmnet,3
Glmnet,2
Glmnet,7
Glmnet,6
Glmnet,0
Glmnet,5
Glmnet,2
Glmnet,21
Glmnet,1
Glmnet,2
Glmnet,0
Glmnet,10
Glmnet,4
Glmnet,2
Glmnet,6
Glmnet,2
Glmnet,2
Glmnet,9
Glmnet,2
Glmnet,4
Glmnet,5
Glmnet,1
Glmnet,3
Glmnet,5
Glmnet,1
Glmnet,11
Glmnet,1
Glmnet,4
Glmnet,7
Glmnet,2
Glmnet,2
Glmnet,2
Glmnet,3
Glmnet,1
Glmnet,4
Glmnet,9
Glmnet,5
Glmnet,0
Glmnet,1
Glmnet,8
Glmnet,7
Glmnet,0
Glmnet,4
Glmnet,3
Glmnet,3
Glmnet,0
Glmnet,8
Glmnet,4
Glmnet,2
Glmnet,1
Glmnet,3
Glmnet,4
Glmnet,1
Glmnet,7
Glmnet,2
Glmnet,5
Glmnet,3
Glmnet,0
Glmnet,3
Glmnet,2
Glmnet,5
Glmnet,1
Glmnet,0
Glmnet,3
Glmnet,5
Glmnet,6
Glmnet,0
Glmnet,3
Glmnet,2
Glmnet,3
Glmnet,0
Glmnet,1
Glmnet,1
Glmnet,2
Glmnet,4
Glmnet,0
Glmnet,6
Glmnet,0
Glmnet,3
Glmnet,1
Glmnet,0
Glmnet,2
Glmnet,1
Glmnet,2
Glmnet,7
Glmnet,19
Glmnet,6
Glmnet,5
Glmnet,0
Glmnet,0
Glmnet,1
Glmnet,6
Glmnet,1
Glmnet,0
Glmnet,1
Glmnet,4
Glmnet,3
Glmnet,2
Glmnet,5
Glmnet,17
Glmnet,3
Glmnet,5
Glmnet,1
Glmnet,2
Glmnet,5
Glmnet,3
Glmnet,5
Glmnet,3
Glmnet,6
Glmnet,0
Glmnet,2
Glmnet,4
Glmnet,2
Glmnet,5
Glmnet,3
Glmnet,1
Glmnet,7
Glmnet,4
Glmnet,1
Glmnet,3
Glmnet,7
Glmnet,6
Glmnet,8
Glmnet,3
Glmnet,7
Glmnet,2
Glmnet,4
Glmnet,0
Glmnet,1
Glmnet,3
Glmnet,3
Glmnet,0
Glmnet,5
Glmnet,4
Glmnet,1
Glmnet,1
Glmnet,1
Glmnet,0
Glmnet,9
Glmnet,4
Glmnet,1
Glmnet,6
Glmnet,1
Glmnet,6
Glmnet,1
Glmnet,4
Glmnet,1
Glmnet,2
Glmnet,2
Glmnet,5
Glmnet,3
Glmnet,13
Glmnet,1
Glmnet,2
Glmnet,3
Glmnet,2
Glmnet,7
Glmnet,6
Glmnet,0
Glmnet,3
Glmnet,1
Glmnet,5
Glmnet,1
Glmnet,1
Glmnet,3
Glmnet,3
Glmnet,8
Glmnet,1
Glmnet,0
Glmnet,2
Glmnet,5
Glmnet,4
Glmnet,2
Glmnet,5
Glmnet,4
Glmnet,2
Glmnet,5
Glmnet,2
Glmnet,5
Glmnet,1
Glmnet,4
Glmnet,7
Glmnet,0
Glmnet,1
Glmnet,0
Glmnet,4
Glmnet,6
Glmnet,2
Glmnet,2
Glmnet,2
Glmnet,8
Glmnet,0
Glmnet,2
Glmnet,0
Glmnet,4
Glmnet,1
Glmnet,4
Glmnet,0
Glmnet,6
Glmnet,2
Glmnet,3
Glmnet,5
Glmnet,1
Glmnet,0
Glmnet,5
Glmnet,1
Glmnet,1
Glmnet,6
Glmnet,1
Glmnet,1
Glmnet,7
Glmnet,0
Glmnet,1
Glmnet,1
Glmnet,1
Glmnet,2
Glmnet,2
Glmnet,2
Glmnet,5
Glmnet,1
Glmnet,0
Glmnet,4
Glmnet,3
Glmnet,1
Glmnet,6
Glmnet,6
Glmnet,2
Glmnet,2
Glmnet,18
Glmnet,6
Glmnet,6
Glmnet,7
Glmnet,3
Glmnet,4
Glmnet,15
Glmnet,5
Glmnet,5
Glmnet,4
Glmnet,1
Glmnet,0
Glmnet,1
Glmnet,11
Glmnet,5
Glmnet,5
Glmnet,1
Glmnet,10
Glmnet,1
Glmnet,3
Glmnet,5
Glmnet,3
Glmnet,3
Glmnet,0
Glmnet,0
Glmnet,0
Glmnet,3
Glmnet,0
Glmnet,4
Glmnet,11
Glmnet,5
Glmnet,1
Glmnet,3
Glmnet,2
Glmnet,0
Glmnet,4
Glmnet,6
LSCON,6
LSCON,4
LSCON,5
LSCON,2
LSCON,2
LSCON,3
LSCON,8
LSCON,4
LSCON,4
LSCON,6
LSCON,6
LSCON,2
LSCON,3
LSCON,7
LSCON,3
LSCON,3
LSCON,4
LSCON,5
LSCON,0
LSCON,4
LSCON,4
LSCON,5
LSCON,4
LSCON,6
LSCON,4
LSCON,3
LSCON,1
LSCON,4
LSCON,3
LSCON,3
LSCON,2
LSCON,6
LSCON,2
LSCON,4
LSCON,2
LSCON,5
LSCON,2
LSCON,2
LSCON,4
LSCON,2
LSCON,3
LSCON,6
LSCON,5
LSCON,3
LSCON,6
LSCON,4
LSCON,3
LSCON,6
LSCON,5
LSCON,1
LSCON,2
LSCON,5
LSCON,1
LSCON,2
LSCON,6
LSCON,6
LSCON,4
LSCON,4
LSCON,8
LSCON,9
LSCON,1
LSCON,4
LSCON,7
LSCON,3
LSCON,2
LSCON,8
LSCON,2
LSCON,5
LSCON,3
LSCON,6
LSCON,7
LSCON,10
LSCON,3
LSCON,2
LSCON,2
LSCON,3
LSCON,3
LSCON,4
LSCON,2
LSCON,2
LSCON,3
LSCON,0
LSCON,8
LSCON,0
LSCON,2
LSCON,5
LSCON,5
LSCON,4
LSCON,8
LSCON,3
LSCON,2
LSCON,3
LSCON,2
LSCON,4
LSCON,2
LSCON,3
LSCON,4
LSCON,2
LSCON,1
LSCON,2
LSCON,7
LSCON,4
LSCON,1
LSCON,3
LSCON,2
LSCON,1
LSCON,9
LSCON,4
LSCON,2
LSCON,7
LSCON,3
LSCON,2
LSCON,2
LSCON,4
LSCON,3
LSCON,4
LSCON,4
LSCON,5
LSCON,8
LSCON,2
LSCON,0
LSCON,2
LSCON,4
LSCON,3
LSCON,3
LSCON,4
LSCON,6
LSCON,3
LSCON,4
LSCON,1
LSCON,3
LSCON,5
LSCON,3
LSCON,8
LSCON,4
LSCON,6
LSCON,5
LSCON,5
LSCON,5
LSCON,8
LSCON,4
LSCON,5
LSCON,3
LSCON,8
LSCON,4
LSCON,3
LSCON,10
LSCON,4
LSCON,4
LSCON,2
LSCON,5
LSCON,3
LSCON,4
LSCON,7
LSCON,5
LSCON,1
LSCON,6
LSCON,5
LSCON,3
LSCON,2
LSCON,3
LSCON,4
LSCON,1
LSCON,5
LSCON,1
LSCON,0
LSCON,7
LSCON,2
LSCON,4
LSCON,4
LSCON,6
LSCON,2
LSCON,3
LSCON,6
LSCON,1
LSCON,1
LSCON,4
LSCON,4
LSCON,5
LSCON,3
LSCON,2
LSCON,8
LSCON,3
LSCON,3
LSCON,3
LSCON,1
LSCON,5
LSCON,3
LSCON,3
LSCON,9
LSCON,5
LSCON,5
LSCON,5
LSCON,5
LSCON,3
LSCON,2
LSCON,5
LSCON,8
LSCON,6
LSCON,4
LSCON,9
LSCON,1
LSCON,6
LSCON,3
LSCON,4
LSCON,6
LSCON,5
LSCON,4
LSCON,5
LSCON,4
LSCON,8
LSCON,6
LSCON,2
LSCON,4
LSCON,1
LSCON,2
LSCON,3
LSCON,2
LSCON,4
LSCON,3
LSCON,4
LSCON,5
LSCON,0
LSCON,9
LSCON,4
LSCON,3
LSCON,2
LSCON,2
LSCON,5
LSCON,2
LSCON,7
LSCON,4
LSCON,2
LSCON,2
LSCON,1
LSCON,6
LSCON,8
LSCON,3
LSCON,1
LSCON,5
LSCON,3
LSCON,4
LSCON,4
LSCON,3
LSCON,6
LSCON,2
LSCON,6
LSCON,3
LSCON,7
LSCON,5
LSCON,3
LSCON,6
LSCON,1
LSCON,1
LSCON,3
LSCON,3
LSCON,5
LSCON,4
LSCON,6
LSCON,2
LSCON,4
LSCON,1
LSCON,3
LSCON,3
LSCON,4
LSCON,2
LSCON,5
LSCON,3
LSCON,12
LSCON,2
LSCON,2
LSCON,5
LSCON,6
LSCON,4
LSCON,4
LSCON,3
LSCON,4
LSCON,4
LSCON,3
LSCON,5
LSCON,5
LSCON,4
LSCON,4
LSCON,5
LSCON,1
LSCON,6
LSCON,2
LSCON,2
LSCON,7
LSCON,4
LSCON,4
LSCON,3
LSCON,3
LSCON,4
LSCON,3
LSCON,5
LSCON,1
LSCON,0
LSCON,4
LSCON,7
LSCON,8
LSCON,4
LSCON,8
LSCON,1
LSCON,6
LSCON,6
LSCON,5
LSCON,2
LSCON,1
LSCON,4
LSCON,9
LSCON,2
LSCON,3
LSCON,2
LSCON,3
LSCON,4
LSCON,5
LSCON,8
LSCON,5
LSCON,7
LSCON,2
LSCON,7
LSCON,4
LSCON,1
LSCON,3
LSCON,4
LSCON,4
LSCON,4
LSCON,4
LSCON,6
LSCON,1
LSCON,9
LSCON,1
LSCON,2
LSCON,3
LSCON,5
LSCON,6
LSCON,3
LSCON,9
LSCON,5
LSCON,4
LSCON,5
LSCON,6
LSCON,6
LSCON,3
LSCON,1
LSCON,4
LSCON,4
LSCON,1
LSCON,2
LSCON,5
LSCON,4
LSCON,6
LSCON,1
LSCON,3
LSCON,4
LSCON,3
LSCON,2
LSCON,3
LSCON,4
LSCON,2
LSCON,7
LSCON,4
LSCON,4
LSCON,8
LSCON,3
LSCON,3
LSCON,5
LSCON,6
LSCON,3
LSCON,4
LSCON,1
LSCON,3
LSCON,6
LSCON,3
LSCON,2
LSCON,4
LSCON,4
LSCON,4
LSCON,4
LSCON,6
LSCON,5
LSCON,4
LSCON,2
LSCON,3
LSCON,3
LSCON,4
LSCON,3
LSCON,1
LSCON,5
LSCON,4
LSCON,7
LSCON,5
LSCON,6
LSCON,0
LSCON,4
LSCON,2
LSCON,1
LSCON,3
LSCON,2
LSCON,5
LSCON,1
LSCON,5
LSCON,1
LSCON,5
LSCON,2
LSCON,3
LSCON,2
LSCON,1
LSCON,3
LSCON,3
LSCON,4
LSCON,2
LSCON,6
LSCON,5
LSCON,1
LSCON,5
LSCON,7
LSCON,1
LSCON,1
LSCON,6
LSCON,1
LSCON,5
LSCON,9
LSCON,7
LSCON,5
LSCON,2
LSCON,2
LSCON,3
LSCON,4
LSCON,3
LSCON,3
LSCON,3
LSCON,9
LSCON,5
LSCON,2
LSCON,2
LSCON,4
LSCON,2
LSCON,2
LSCON,6
LSCON,5
LSCON,4
LSCON,5
LSCON,3
LSCON,4
LSCON,2
LSCON,2
LSCON,3
LSCON,5
LSCON,2
LSCON,3
LSCON,3
LSCON,2
LSCON,2
LSCON,4
LSCON,3
LSCON,5
LSCON,6
LSCON,1
LSCON,6
LSCON,6
LSCON,1
LSCON,3
LSCON,2
LSCON,2
LSCON,2
LSCON,1
LSCON,9
LSCON,6
LSCON,1
LSCON,9
LSCON,1
LSCON,3
LSCON,5
LSCON,2
LSCON,3
LSCON,6
LSCON,4
LSCON,4
LSCON,1
LSCON,5
LSCON,5
LSCON,2
LSCON,2
LSCON,4
LSCON,7
LSCON,4
LSCON,5
LSCON,9
LSCON,5
LSCON,3
LSCON,4
LSCON,6
LSCON,3
LSCON,6
LSCON,4
LSCON,3
LSCON,2
LSCON,5
LSCON,2
LSCON,6
LSCON,8
LSCON,2
LSCON,5
LSCON,6
LSCON,2
LSCON,1
LSCON,2
LSCON,3
LSCON,5
LSCON,6
LSCON,0
LSCON,0
LSCON,2
LSCON,8
LSCON,2
LSCON,3
LSCON,5
LSCON,3
LSCON,4
LSCON,6
LSCON,3
LSCON,3
LSCON,3
LSCON,2
LSCON,3
LSCON,4
LSCON,4
LSCON,1
LSCON,8
LSCON,6
LSCON,2
LSCON,4
LSCON,8
LSCON,2
LSCON,2
LSCON,2
LSCON,4
LSCON,1
LSCON,4
LSCON,2
LSCON,1
LSCON,5
LSCON,5
LSCON,6
LSCON,3
LSCON,4
LSCON,2
LSCON,4
LSCON,4
LSCON,6
LSCON,3
LSCON,5
LSCON,2
LSCON,4
LSCON,3
LSCON,3
LSCON,5
LSCON,3
LSCON,7
LSCON,8
LSCON,2
LSCON,4
LSCON,7
LSCON,6
LSCON,3
LSCON,1
LSCON,2
LSCON,3
LSCON,7
LSCON,3
LSCON,4
LSCON,3
LSCON,7
LSCON,5
LSCON,9
LSCON,4
LSCON,3
LSCON,5
LSCON,4
LSCON,6
LSCON,4
LSCON,4
LSCON,4
LSCON,2
LSCON,3
LSCON,3
LSCON,4
LSCON,3
LSCON,2
LSCON,0
LSCON,3
LSCON,3
LSCON,4
LSCON,4
LSCON,4
LSCON,6
LSCON,1
LSCON,6
LSCON,1
LSCON,8
LSCON,3
LSCON,6
LSCON,5
LSCON,2
LSCON,3
LSCON,4
LSCON,7
LSCON,7
LSCON,4
LSCON,6
LSCON,2
LSCON,9
LSCON,4
LSCON,4
LSCON,4
LSCON,2
LSCON,4
LSCON,1
LSCON,7
LSCON,3
LSCON,4
LSCON,0
LSCON,4
LSCON,2
LSCON,6
LSCON,3
LSCON,6
LSCON,2
LSCON,4
LSCON,2
LSCON,1
LSCON,4
LSCON,6
LSCON,2
LSCON,8
LSCON,2
LSCON,3
LSCON,4
LSCON,8
LSCON,0
LSCON,5
LSCON,5
LSCON,2
LSCON,5
LSCON,4
LSCON,4
LSCON,0
LSCON,5
LSCON,5
LSCON,2
LSCON,5
LSCON,4
LSCON,3
LSCON,4
LSCON,1
LSCON,6
LSCON,5
LSCON,5
LSCON,6
LSCON,2
LSCON,6
LSCON,2
LSCON,4
LSCON,5
LSCON,5
LSCON,4
LSCON,5
LSCON,3
LSCON,3
LSCON,3
LSCON,2
LSCON,3
LSCON,4
LSCON,8
LSCON,4
LSCON,8
LSCON,3
LSCON,5
LSCON,6
LSCON,1
LSCON,1
LSCON,2
LSCON,2
LSCON,5
LSCON,9
LSCON,4
LSCON,3
LSCON,7
LSCON,1
LSCON,4
LSCON,3
LSCON,3
LSCON,5
LSCON,1
LSCON,2
LSCON,1
LSCON,5
LSCON,6
LSCON,1
LSCON,3
LSCON,1
LSCON,7
LSCON,8
LSCON,3
LSCON,2
LSCON,4
LSCON,3
LSCON,3
LSCON,4
LSCON,4
LSCON,4
LSCON,5
LSCON,4
LSCON,4
LSCON,1
LSCON,3
LSCON,3
LSCON,5
LSCON,2
LSCON,2
LSCON,4
LSCON,2
LSCON,3
LSCON,3
LSCON,2
LSCON,4
LSCON,2
LSCON,6
LSCON,3
LSCON,1
LSCON,2
LSCON,0
LSCON,3
LSCON,6
LSCON,9
LSCON,2
LSCON,4
LSCON,3
LSCON,11
LSCON,1
LSCON,4
LSCON,3
