Method,degree_med
lsco,0
lsco,1
lsco,0
lsco,0
lsco,1
lsco,0
lsco,0
lsco,0
lsco,0
lsco,0
lsco,0
lsco,0
lsco,0
lsco,0
lsco,1
lsco,0
lsco,9
lsco,0
lsco,0
lsco,0
lsco,0
lsco,1
lsco,0
lsco,0
lsco,2
lsco,0
lsco,0
lsco,0
lsco,0
lsco,0
lsco,0
lsco,0
lsco,1
lsco,3
lsco,1
lsco,1
lsco,0
lsco,0
lsco,0
lsco,0
lsco,1
lsco,0
lsco,26
lsco,0
lsco,24
lsco,1
lsco,3
lsco,0
lsco,1
lsco,1
lsco,1
lsco,1
lsco,0
lsco,2
lsco,0
lsco,1
lsco,0
lsco,0
lsco,0
lsco,10
lsco,1
lsco,0
lsco,1
lsco,2
lsco,0
lsco,1
lsco,0
lsco,0
lsco,2
lsco,0
lsco,0
lsco,0
lsco,0
lsco,0
lsco,0
lsco,0
lsco,0
lsco,0
lsco,0
lsco,0
lsco,0
lsco,0
lsco,0
lsco,1
lsco,0
lsco,0
lsco,0
lsco,0
lsco,0
lsco,1
lsco,0
lsco,0
lsco,0
lsco,0
lsco,1
lsco,1
lsco,0
lsco,20
lsco,0
lsco,0
lsco,0
lsco,1
lsco,6
lsco,1
lsco,0
lsco,0
lsco,0
lsco,1
lsco,0
lsco,1
lsco,0
lsco,51
lsco,0
lsco,2
lsco,1
lsco,1
lsco,0
lsco,1
lsco,1
lsco,1
lsco,1
lsco,0
lsco,0
lsco,0
lsco,10
lsco,0
lsco,0
lsco,2
lsco,0
lsco,1
lsco,0
lsco,0
lsco,0
lsco,0
lsco,138
lsco,1
lsco,0
lsco,1
lsco,8
lsco,35
lsco,0
lsco,1
lsco,20
lsco,1
lsco,0
lsco,1
lsco,53
lsco,0
lsco,0
lsco,1
lsco,1
lsco,1
lsco,7
lsco,2
lsco,5
lsco,0
lsco,0
lsco,0
lsco,0
lsco,0
lsco,0
lsco,0
lsco,6
lsco,1
lsco,5
lsco,0
lsco,0
lsco,8
lsco,1
lsco,2
lsco,1
lsco,1
lsco,2
lsco,0
lsco,0
lsco,1
lsco,0
lsco,0
lsco,1
lsco,24
lsco,7
lsco,30
lsco,2
lsco,0
lsco,0
lsco,0
lsco,1
lsco,0
lsco,0
lsco,0
lsco,0
lsco,14
lsco,15
lsco,0
lsco,1
lsco,46
lsco,0
lsco,1
lsco,1
lsco,0
lsco,4
lsco,0
lsco,0
lsco,0
lsco,0
lsco,1
lsco,0
lsco,1
lsco,0
lsco,0
lsco,7
lsco,0
lsco,0
lsco,1
lsco,0
lsco,0
lsco,0
lsco,7
lsco,2
lsco,2
lsco,5
lsco,1
lsco,1
lsco,0
lsco,1
lsco,0
lsco,1
lsco,1
lsco,1
lsco,0
lsco,0
lsco,0
lsco,1
lsco,0
lsco,0
lsco,0
lsco,0
lsco,0
lsco,0
lsco,0
lsco,0
lsco,0
lsco,0
lsco,0
lsco,2
lsco,0
lsco,0
lsco,0
lsco,1
lsco,0
lsco,0
lsco,1
lsco,0
lsco,1
lsco,0
lsco,0
lsco,1
lsco,0
lsco,0
lsco,0
lsco,0
lsco,1
lsco,0
lsco,0
lsco,0
lsco,0
lsco,0
lsco,0
lsco,1
lsco,0
lsco,1
lsco,0
lsco,0
lsco,1
lsco,0
lsco,1
lsco,1
lsco,1
lsco,0
lsco,0
lsco,0
lsco,0
lsco,0
lsco,0
lsco,0
lsco,1
lsco,0
lsco,0
lsco,2
lsco,0
lsco,0
lsco,0
lsco,25
lsco,0
lsco,1
lsco,1
lsco,0
lsco,1
lsco,0
lsco,0
lsco,1
lsco,1
lsco,0
lsco,23
lsco,4
lsco,0
lsco,1
lsco,0
lsco,0
lsco,0
lsco,13
lsco,0
lsco,1
lsco,1
lsco,0
lsco,0
lsco,0
lsco,0
lsco,17
lsco,0
lsco,0
lsco,0
lsco,0
lsco,0
lsco,0
lsco,0
lsco,0
lsco,0
lsco,1
lsco,0
lsco,1
lsco,0
lsco,1
lsco,1
lsco,6
lsco,0
lsco,0
lsco,0
lsco,0
lsco,0
lsco,2
lsco,1
lsco,3
lsco,1
lsco,1
lsco,26
lsco,0
lsco,1
lsco,1
lsco,1
lsco,0
lsco,0
lsco,3
lsco,1
lsco,0
lsco,2
lsco,1
lsco,0
lsco,1
lsco,1
lsco,0
lsco,1
lsco,0
lsco,0
lsco,0
lsco,0
lsco,4
lsco,0
lsco,1
lsco,1
lsco,1
lsco,2
lsco,0
lsco,1
lsco,0
lsco,0
lsco,0
lsco,0
lsco,0
lsco,1
lsco,0
lsco,1
lsco,0
lsco,1
lsco,0
lsco,13
lsco,1
lsco,29
lsco,2
lsco,1
lsco,1
lsco,0
lsco,0
lsco,1
lsco,6
lsco,3
lsco,0
lsco,30
lsco,4
lsco,15
lsco,2
lsco,0
lsco,0
lsco,0
lsco,0
lsco,0
lsco,0
lsco,0
lsco,0
lsco,0
lsco,1
lsco,0
lsco,0
lsco,0
lsco,0
lsco,0
lsco,1
lsco,0
lsco,1
lsco,0
lsco,0
lsco,1
lsco,1
lsco,0
lsco,33
lsco,0
lsco,0
lsco,2
lsco,4
lsco,1
lsco,1
lsco,0
lsco,0
lsco,1
lsco,1
lsco,0
lsco,0
lsco,0
lsco,1
lsco,1
lsco,1
lsco,2
lsco,0
lsco,1
lsco,0
lsco,0
lsco,16
lsco,1
lsco,1
lsco,32
lsco,0
lsco,0
lsco,0
lsco,24
lsco,0
lsco,24
lsco,0
lsco,0
lsco,2
lsco,0
lsco,0
lsco,1
lsco,2
lsco,1
lsco,0
lsco,0
lsco,0
lsco,0
lsco,0
lsco,0
lsco,0
lsco,1
lsco,3
lsco,0
lsco,27
lsco,0
lsco,13
lsco,0
lsco,2
lsco,1
lsco,1
lsco,0
lsco,0
lsco,1
lsco,0
lsco,4
lsco,2
lsco,0
lsco,1
lsco,6
lsco,14
lsco,1
lsco,1
lsco,1
lsco,0
lsco,1
lsco,0
lsco,51
lsco,0
lsco,15
lsco,4
lsco,18
lsco,1
lsco,5
lsco,0
lsco,0
lsco,16
lsco,0
lsco,0
lsco,1
lsco,0
lsco,0
lsco,2
lsco,0
lsco,0
lsco,0
lsco,0
lsco,0
lsco,0
lsco,1
lsco,1
lsco,0
lsco,1
lsco,0
lsco,0
lsco,0
lsco,0
lsco,1
lsco,1
lsco,0
lsco,1
lsco,1
lsco,10
lsco,1
lsco,0
lsco,93
lsco,0
lsco,0
lsco,28
lsco,2
lsco,0
lsco,0
lsco,3
lsco,0
lsco,1
lsco,0
lsco,0
lsco,0
lsco,0
lsco,29
lsco,35
lsco,0
lsco,0
lsco,1
lsco,1
lsco,2
lsco,1
lsco,4
lsco,0
lsco,0
lsco,0
lsco,2
lsco,0
lsco,0
lsco,0
lsco,0
lsco,9
lsco,0
lsco,0
lsco,0
lsco,1
lsco,1
lsco,4
lsco,0
lsco,0
lsco,0
lsco,23
lsco,0
lsco,1
lsco,0
lsco,0
lsco,0
lsco,0
lsco,1
lsco,0
lsco,3
lsco,2
lsco,1
lsco,0
lsco,37
lsco,0
lsco,0
lsco,0
lsco,5
lsco,48
lsco,1
lsco,1
lsco,1
lsco,0
lsco,2
lsco,0
lsco,0
lsco,0
lsco,0
lsco,0
lsco,0
lsco,1
lsco,0
lsco,5
lsco,0
lsco,2
lsco,0
lsco,1
lsco,49
lsco,0
lsco,1
lsco,1
lsco,21
lsco,0
lsco,2
lsco,0
lsco,0
lsco,0
lsco,0
lsco,1
lsco,11
lsco,0
lsco,0
lsco,0
lsco,0
lsco,2
lsco,0
lsco,0
lsco,1
lsco,0
lsco,0
lsco,1
lsco,1
lsco,0
lsco,15
lsco,0
lsco,0
lsco,0
lsco,1
lsco,0
lsco,0
lsco,0
lsco,0
lsco,6
Glmnet,2
Glmnet,1
Glmnet,1
Glmnet,1
Glmnet,3
Glmnet,1
Glmnet,2
Glmnet,2
Glmnet,1
Glmnet,2
Glmnet,1
Glmnet,0
Glmnet,0
Glmnet,1
Glmnet,0
Glmnet,4
Glmnet,5
Glmnet,1
Glmnet,0
Glmnet,0
Glmnet,2
Glmnet,1
Glmnet,0
Glmnet,0
Glmnet,3
Glmnet,4
Glmnet,0
Glmnet,0
Glmnet,0
Glmnet,0
Glmnet,1
Glmnet,0
Glmnet,3
Glmnet,0
Glmnet,1
Glmnet,4
Glmnet,0
Glmnet,1
Glmnet,3
Glmnet,0
Glmnet,1
Glmnet,1
Glmnet,0
Glmnet,0
Glmnet,0
Glmnet,2
Glmnet,4
Glmnet,2
Glmnet,4
Glmnet,3
Glmnet,2
Glmnet,3
Glmnet,0
Glmnet,1
Glmnet,1
Glmnet,1
Glmnet,0
Glmnet,0
Glmnet,0
Glmnet,0
Glmnet,2
Glmnet,0
Glmnet,3
Glmnet,3
Glmnet,0
Glmnet,1
Glmnet,1
Glmnet,0
Glmnet,1
Glmnet,0
Glmnet,1
Glmnet,1
Glmnet,1
Glmnet,0
Glmnet,1
Glmnet,1
Glmnet,1
Glmnet,0
Glmnet,2
Glmnet,0
Glmnet,1
Glmnet,1
Glmnet,0
Glmnet,1
Glmnet,0
Glmnet,1
Glmnet,0
Glmnet,1
Glmnet,2
Glmnet,5
Glmnet,0
Glmnet,1
Glmnet,1
Glmnet,3
Glmnet,1
Glmnet,1
Glmnet,0
Glmnet,0
Glmnet,0
Glmnet,0
Glmnet,1
Glmnet,3
Glmnet,1
Glmnet,1
Glmnet,0
Glmnet,0
Glmnet,0
Glmnet,4
Glmnet,0
Glmnet,2
Glmnet,0
Glmnet,0
Glmnet,6
Glmnet,4
Glmnet,0
Glmnet,2
Glmnet,1
Glmnet,1
Glmnet,1
Glmnet,2
Glmnet,1
Glmnet,1
Glmnet,2
Glmnet,0
Glmnet,0
Glmnet,4
Glmnet,1
Glmnet,2
Glmnet,0
Glmnet,4
Glmnet,3
Glmnet,0
Glmnet,1
Glmnet,0
Glmnet,0
Glmnet,4
Glmnet,0
Glmnet,1
Glmnet,0
Glmnet,0
Glmnet,1
Glmnet,2
Glmnet,1
Glmnet,1
Glmnet,0
Glmnet,3
Glmnet,1
Glmnet,1
Glmnet,1
Glmnet,3
Glmnet,1
Glmnet,1
Glmnet,0
Glmnet,2
Glmnet,3
Glmnet,0
Glmnet,0
Glmnet,0
Glmnet,0
Glmnet,1
Glmnet,2
Glmnet,1
Glmnet,2
Glmnet,2
Glmnet,6
Glmnet,0
Glmnet,0
Glmnet,1
Glmnet,1
Glmnet,3
Glmnet,1
Glmnet,2
Glmnet,1
Glmnet,1
Glmnet,0
Glmnet,1
Glmnet,0
Glmnet,0
Glmnet,3
Glmnet,1
Glmnet,1
Glmnet,1
Glmnet,2
Glmnet,1
Glmnet,1
Glmnet,0
Glmnet,1
Glmnet,0
Glmnet,1
Glmnet,0
Glmnet,0
Glmnet,1
Glmnet,0
Glmnet,1
Glmnet,0
Glmnet,0
Glmnet,0
Glmnet,2
Glmnet,1
Glmnet,1
Glmnet,0
Glmnet,0
Glmnet,0
Glmnet,0
Glmnet,0
Glmnet,0
Glmnet,0
Glmnet,2
Glmnet,0
Glmnet,1
Glmnet,0
Glmnet,0
Glmnet,2
Glmnet,2
Glmnet,0
Glmnet,1
Glmnet,2
Glmnet,1
Glmnet,6
Glmnet,5
Glmnet,1
Glmnet,1
Glmnet,3
Glmnet,1
Glmnet,2
Glmnet,0
Glmnet,4
Glmnet,1
Glmnet,2
Glmnet,1
Glmnet,2
Glmnet,0
Glmnet,2
Glmnet,0
Glmnet,1
Glmnet,0
Glmnet,0
Glmnet,1
Glmnet,0
Glmnet,1
Glmnet,2
Glmnet,0
Glmnet,0
Glmnet,0
Glmnet,4
Glmnet,0
Glmnet,0
Glmnet,1
Glmnet,1
Glmnet,0
Glmnet,0
Glmnet,3
Glmnet,0
Glmnet,2
Glmnet,0
Glmnet,0
Glmnet,2
Glmnet,1
Glmnet,1
Glmnet,0
Glmnet,3
Glmnet,1
Glmnet,1
Glmnet,1
Glmnet,1
Glmnet,0
Glmnet,0
Glmnet,0
Glmnet,1
Glmnet,2
Glmnet,1
Glmnet,0
Glmnet,0
Glmnet,2
Glmnet,1
Glmnet,1
Glmnet,3
Glmnet,2
Glmnet,0
Glmnet,0
Glmnet,1
Glmnet,0
Glmnet,0
Glmnet,0
Glmnet,1
Glmnet,2
Glmnet,0
Glmnet,2
Glmnet,1
Glmnet,1
Glmnet,1
Glmnet,1
Glmnet,1
Glmnet,1
Glmnet,4
Glmnet,1
Glmnet,2
Glmnet,1
Glmnet,1
Glmnet,4
Glmnet,2
Glmnet,2
Glmnet,0
Glmnet,0
Glmnet,5
Glmnet,1
Glmnet,0
Glmnet,1
Glmnet,0
Glmnet,0
Glmnet,0
Glmnet,2
Glmnet,0
Glmnet,1
Glmnet,3
Glmnet,0
Glmnet,0
Glmnet,2
Glmnet,0
Glmnet,1
Glmnet,2
Glmnet,0
Glmnet,3
Glmnet,0
Glmnet,1
Glmnet,0
Glmnet,0
Glmnet,2
Glmnet,3
Glmnet,1
Glmnet,0
Glmnet,0
Glmnet,0
Glmnet,2
Glmnet,7
Glmnet,1
Glmnet,5
Glmnet,1
Glmnet,1
Glmnet,0
Glmnet,0
Glmnet,2
Glmnet,5
Glmnet,0
Glmnet,2
Glmnet,0
Glmnet,2
Glmnet,1
Glmnet,1
Glmnet,2
Glmnet,1
Glmnet,0
Glmnet,0
Glmnet,1
Glmnet,1
Glmnet,1
Glmnet,3
Glmnet,0
Glmnet,1
Glmnet,4
Glmnet,0
Glmnet,3
Glmnet,0
Glmnet,0
Glmnet,1
Glmnet,1
Glmnet,0
Glmnet,0
Glmnet,4
Glmnet,1
Glmnet,1
Glmnet,0
Glmnet,0
Glmnet,2
Glmnet,0
Glmnet,0
Glmnet,1
Glmnet,1
Glmnet,2
Glmnet,2
Glmnet,1
Glmnet,1
Glmnet,4
Glmnet,2
Glmnet,0
Glmnet,0
Glmnet,2
Glmnet,1
Glmnet,4
Glmnet,1
Glmnet,4
Glmnet,0
Glmnet,0
Glmnet,1
Glmnet,0
Glmnet,0
Glmnet,1
Glmnet,0
Glmnet,4
Glmnet,0
Glmnet,4
Glmnet,0
Glmnet,1
Glmnet,0
Glmnet,2
Glmnet,2
Glmnet,0
Glmnet,0
Glmnet,1
Glmnet,1
Glmnet,2
Glmnet,0
Glmnet,2
Glmnet,1
Glmnet,0
Glmnet,1
Glmnet,3
Glmnet,1
Glmnet,2
Glmnet,0
Glmnet,0
Glmnet,0
Glmnet,2
Glmnet,1
Glmnet,0
Glmnet,0
Glmnet,0
Glmnet,0
Glmnet,2
Glmnet,2
Glmnet,1
Glmnet,2
Glmnet,0
Glmnet,0
Glmnet,5
Glmnet,1
Glmnet,2
Glmnet,2
Glmnet,0
Glmnet,2
Glmnet,5
Glmnet,2
Glmnet,0
Glmnet,2
Glmnet,1
Glmnet,0
Glmnet,2
Glmnet,3
Glmnet,2
Glmnet,1
Glmnet,0
Glmnet,0
Glmnet,0
Glmnet,0
Glmnet,0
Glmnet,1
Glmnet,0
Glmnet,0
Glmnet,3
Glmnet,1
Glmnet,0
Glmnet,1
Glmnet,7
Glmnet,1
Glmnet,1
Glmnet,0
Glmnet,1
Glmnet,0
Glmnet,0
Glmnet,0
Glmnet,1
Glmnet,3
Glmnet,3
Glmnet,0
Glmnet,1
Glmnet,0
Glmnet,2
Glmnet,1
Glmnet,1
Glmnet,3
Glmnet,1
Glmnet,0
Glmnet,0
Glmnet,5
Glmnet,0
Glmnet,2
Glmnet,3
Glmnet,6
Glmnet,3
Glmnet,0
Glmnet,1
Glmnet,2
Glmnet,3
Glmnet,2
Glmnet,0
Glmnet,1
Glmnet,0
Glmnet,0
Glmnet,0
Glmnet,1
Glmnet,0
Glmnet,0
Glmnet,1
Glmnet,0
Glmnet,0
Glmnet,0
Glmnet,2
Glmnet,0
Glmnet,2
Glmnet,0
Glmnet,0
Glmnet,1
Glmnet,4
Glmnet,0
Glmnet,0
Glmnet,0
Glmnet,1
Glmnet,1
Glmnet,1
Glmnet,0
Glmnet,2
Glmnet,2
Glmnet,3
Glmnet,2
Glmnet,0
Glmnet,0
Glmnet,1
Glmnet,1
Glmnet,1
Glmnet,2
Glmnet,1
Glmnet,1
Glmnet,0
Glmnet,0
Glmnet,0
Glmnet,2
Glmnet,0
Glmnet,0
Glmnet,1
Glmnet,3
Glmnet,0
Glmnet,0
Glmnet,0
Glmnet,0
Glmnet,5
Glmnet,0
Glmnet,0
Glmnet,1
Glmnet,0
Glmnet,1
Glmnet,0
Glmnet,1
Glmnet,1
Glmnet,2
Glmnet,4
Glmnet,3
Glmnet,5
Glmnet,2
Glmnet,2
Glmnet,2
Glmnet,0
Glmnet,0
Glmnet,6
Glmnet,5
Glmnet,0
Glmnet,1
Glmnet,0
Glmnet,1
Glmnet,1
Glmnet,1
Glmnet,0
Glmnet,1
Glmnet,0
Glmnet,1
Glmnet,1
Glmnet,0
Glmnet,1
Glmnet,1
Glmnet,1
Glmnet,0
Glmnet,1
Glmnet,1
Glmnet,1
Glmnet,1
Glmnet,2
Glmnet,6
Glmnet,2
Glmnet,5
Glmnet,1
Glmnet,1
Glmnet,6
Glmnet,4
Glmnet,3
Glmnet,0
Glmnet,0
Glmnet,1
Glmnet,1
Glmnet,1
Glmnet,1
Glmnet,1
Glmnet,0
Glmnet,1
Glmnet,0
Glmnet,0
Glmnet,0
Glmnet,1
Glmnet,0
Glmnet,1
Glmnet,1
Glmnet,0
Glmnet,3
Glmnet,0
Glmnet,2
Glmnet,0
Glmnet,0
Glmnet,2
Glmnet,1
Glmnet,1
Glmnet,1
Glmnet,2
Glmnet,1
Glmnet,1
Glmnet,2
Glmnet,0
Glmnet,1
Glmnet,0
Glmnet,0
Glmnet,0
Glmnet,0
Glmnet,0
Glmnet,3
Glmnet,1
Glmnet,1
Glmnet,2
Glmnet,1
Glmnet,0
Glmnet,3
Glmnet,4
Glmnet,0
Glmnet,0
Glmnet,5
Glmnet,0
Glmnet,0
Glmnet,1
Glmnet,0
Glmnet,1
Glmnet,1
Glmnet,0
Glmnet,0
LSCON,1
LSCON,3
LSCON,1
LSCON,3
LSCON,2
LSCON,2
LSCON,7
LSCON,2
LSCON,1
LSCON,2
LSCON,2
LSCON,3
LSCON,0
LSCON,3
LSCON,3
LSCON,3
LSCON,0
LSCON,1
LSCON,2
LSCON,0
LSCON,2
LSCON,2
LSCON,0
LSCON,1
LSCON,2
LSCON,1
LSCON,0
LSCON,3
LSCON,2
LSCON,1
LSCON,2
LSCON,0
LSCON,3
LSCON,2
LSCON,1
LSCON,3
LSCON,1
LSCON,2
LSCON,2
LSCON,2
LSCON,4
LSCON,2
LSCON,3
LSCON,0
LSCON,2
LSCON,1
LSCON,4
LSCON,1
LSCON,3
LSCON,3
LSCON,2
LSCON,4
LSCON,0
LSCON,2
LSCON,1
LSCON,2
LSCON,0
LSCON,4
LSCON,2
LSCON,2
LSCON,2
LSCON,0
LSCON,2
LSCON,3
LSCON,0
LSCON,1
LSCON,0
LSCON,4
LSCON,2
LSCON,3
LSCON,4
LSCON,0
LSCON,0
LSCON,4
LSCON,2
LSCON,1
LSCON,4
LSCON,2
LSCON,3
LSCON,1
LSCON,1
LSCON,0
LSCON,0
LSCON,3
LSCON,2
LSCON,2
LSCON,2
LSCON,0
LSCON,2
LSCON,1
LSCON,1
LSCON,0
LSCON,5
LSCON,1
LSCON,1
LSCON,2
LSCON,0
LSCON,0
LSCON,1
LSCON,0
LSCON,2
LSCON,1
LSCON,1
LSCON,4
LSCON,3
LSCON,1
LSCON,3
LSCON,1
LSCON,0
LSCON,4
LSCON,1
LSCON,3
LSCON,0
LSCON,4
LSCON,3
LSCON,1
LSCON,1
LSCON,2
LSCON,3
LSCON,3
LSCON,3
LSCON,1
LSCON,1
LSCON,3
LSCON,1
LSCON,2
LSCON,1
LSCON,2
LSCON,0
LSCON,2
LSCON,2
LSCON,2
LSCON,2
LSCON,2
LSCON,2
LSCON,1
LSCON,2
LSCON,2
LSCON,0
LSCON,1
LSCON,3
LSCON,3
LSCON,2
LSCON,0
LSCON,2
LSCON,2
LSCON,1
LSCON,0
LSCON,2
LSCON,3
LSCON,3
LSCON,2
LSCON,1
LSCON,5
LSCON,4
LSCON,0
LSCON,3
LSCON,0
LSCON,0
LSCON,1
LSCON,1
LSCON,2
LSCON,5
LSCON,1
LSCON,5
LSCON,2
LSCON,0
LSCON,1
LSCON,1
LSCON,2
LSCON,4
LSCON,3
LSCON,2
LSCON,3
LSCON,4
LSCON,2
LSCON,0
LSCON,0
LSCON,5
LSCON,2
LSCON,3
LSCON,2
LSCON,3
LSCON,0
LSCON,4
LSCON,3
LSCON,7
LSCON,0
LSCON,2
LSCON,1
LSCON,1
LSCON,0
LSCON,1
LSCON,0
LSCON,1
LSCON,0
LSCON,3
LSCON,5
LSCON,3
LSCON,1
LSCON,3
LSCON,1
LSCON,4
LSCON,2
LSCON,3
LSCON,3
LSCON,2
LSCON,2
LSCON,2
LSCON,4
LSCON,1
LSCON,1
LSCON,0
LSCON,1
LSCON,2
LSCON,1
LSCON,1
LSCON,1
LSCON,4
LSCON,2
LSCON,5
LSCON,2
LSCON,3
LSCON,1
LSCON,5
LSCON,0
LSCON,3
LSCON,2
LSCON,4
LSCON,0
LSCON,2
LSCON,1
LSCON,3
LSCON,1
LSCON,4
LSCON,2
LSCON,0
LSCON,0
LSCON,2
LSCON,0
LSCON,3
LSCON,2
LSCON,2
LSCON,0
LSCON,2
LSCON,1
LSCON,0
LSCON,4
LSCON,1
LSCON,2
LSCON,2
LSCON,4
LSCON,3
LSCON,1
LSCON,1
LSCON,0
LSCON,4
LSCON,3
LSCON,2
LSCON,1
LSCON,1
LSCON,1
LSCON,3
LSCON,2
LSCON,0
LSCON,1
LSCON,4
LSCON,2
LSCON,2
LSCON,2
LSCON,2
LSCON,1
LSCON,0
LSCON,5
LSCON,1
LSCON,1
LSCON,1
LSCON,2
LSCON,0
LSCON,1
LSCON,1
LSCON,3
LSCON,0
LSCON,2
LSCON,1
LSCON,4
LSCON,1
LSCON,5
LSCON,3
LSCON,2
LSCON,3
LSCON,0
LSCON,1
LSCON,3
LSCON,3
LSCON,3
LSCON,2
LSCON,2
LSCON,2
LSCON,3
LSCON,1
LSCON,3
LSCON,1
LSCON,1
LSCON,5
LSCON,1
LSCON,4
LSCON,2
LSCON,0
LSCON,4
LSCON,1
LSCON,3
LSCON,1
LSCON,1
LSCON,5
LSCON,1
LSCON,2
LSCON,3
LSCON,2
LSCON,3
LSCON,3
LSCON,1
LSCON,2
LSCON,1
LSCON,4
LSCON,2
LSCON,1
LSCON,1
LSCON,1
LSCON,0
LSCON,1
LSCON,0
LSCON,0
LSCON,1
LSCON,2
LSCON,3
LSCON,3
LSCON,3
LSCON,0
LSCON,1
LSCON,3
LSCON,2
LSCON,4
LSCON,4
LSCON,2
LSCON,0
LSCON,2
LSCON,1
LSCON,2
LSCON,1
LSCON,2
LSCON,2
LSCON,0
LSCON,3
LSCON,1
LSCON,0
LSCON,2
LSCON,2
LSCON,4
LSCON,2
LSCON,3
LSCON,1
LSCON,0
LSCON,1
LSCON,2
LSCON,1
LSCON,1
LSCON,4
LSCON,1
LSCON,2
LSCON,1
LSCON,3
LSCON,2
LSCON,1
LSCON,2
LSCON,2
LSCON,1
LSCON,2
LSCON,0
LSCON,1
LSCON,5
LSCON,3
LSCON,1
LSCON,2
LSCON,0
LSCON,0
LSCON,3
LSCON,0
LSCON,4
LSCON,3
LSCON,2
LSCON,0
LSCON,2
LSCON,3
LSCON,2
LSCON,0
LSCON,6
LSCON,1
LSCON,6
LSCON,1
LSCON,3
LSCON,2
LSCON,3
LSCON,1
LSCON,5
LSCON,1
LSCON,0
LSCON,0
LSCON,3
LSCON,4
LSCON,4
LSCON,0
LSCON,2
LSCON,5
LSCON,0
LSCON,2
LSCON,3
LSCON,4
LSCON,2
LSCON,0
LSCON,0
LSCON,1
LSCON,1
LSCON,3
LSCON,0
LSCON,2
LSCON,1
LSCON,1
LSCON,9
LSCON,2
LSCON,3
LSCON,2
LSCON,2
LSCON,1
LSCON,1
LSCON,3
LSCON,4
LSCON,1
LSCON,0
LSCON,1
LSCON,3
LSCON,5
LSCON,0
LSCON,2
LSCON,0
LSCON,1
LSCON,3
LSCON,2
LSCON,3
LSCON,1
LSCON,1
LSCON,3
LSCON,1
LSCON,1
LSCON,4
LSCON,0
LSCON,0
LSCON,1
LSCON,2
LSCON,1
LSCON,2
LSCON,2
LSCON,5
LSCON,1
LSCON,1
LSCON,2
LSCON,2
LSCON,0
LSCON,0
LSCON,2
LSCON,2
LSCON,2
LSCON,3
LSCON,1
LSCON,0
LSCON,4
LSCON,2
LSCON,3
LSCON,2
LSCON,2
LSCON,2
LSCON,5
LSCON,2
LSCON,2
LSCON,1
LSCON,6
LSCON,3
LSCON,4
LSCON,1
LSCON,1
LSCON,1
LSCON,3
LSCON,3
LSCON,3
LSCON,0
LSCON,2
LSCON,0
LSCON,1
LSCON,0
LSCON,0
LSCON,1
LSCON,2
LSCON,3
LSCON,1
LSCON,3
LSCON,0
LSCON,0
LSCON,0
LSCON,3
LSCON,2
LSCON,0
LSCON,6
LSCON,2
LSCON,2
LSCON,1
LSCON,2
LSCON,3
LSCON,1
LSCON,4
LSCON,2
LSCON,2
LSCON,1
LSCON,6
LSCON,1
LSCON,0
LSCON,2
LSCON,3
LSCON,2
LSCON,2
LSCON,1
LSCON,3
LSCON,3
LSCON,0
LSCON,1
LSCON,0
LSCON,0
LSCON,0
LSCON,3
LSCON,2
LSCON,3
LSCON,1
LSCON,0
LSCON,0
LSCON,1
LSCON,1
LSCON,1
LSCON,0
LSCON,2
LSCON,1
LSCON,2
LSCON,0
LSCON,5
LSCON,4
LSCON,7
LSCON,1
LSCON,4
LSCON,4
LSCON,4
LSCON,2
LSCON,1
LSCON,0
LSCON,2
LSCON,7
LSCON,3
LSCON,0
LSCON,2
LSCON,3
LSCON,2
LSCON,2
LSCON,1
LSCON,1
LSCON,2
LSCON,4
LSCON,0
LSCON,1
LSCON,1
LSCON,0
LSCON,0
LSCON,3
LSCON,1
LSCON,2
LSCON,0
LSCON,2
LSCON,2
LSCON,2
LSCON,5
LSCON,4
LSCON,4
LSCON,2
LSCON,2
LSCON,3
LSCON,4
LSCON,1
LSCON,1
LSCON,1
LSCON,4
LSCON,2
LSCON,4
LSCON,3
LSCON,1
LSCON,0
LSCON,0
LSCON,1
LSCON,1
LSCON,2
LSCON,1
LSCON,2
LSCON,1
LSCON,2
LSCON,2
LSCON,3
LSCON,2
LSCON,2
LSCON,2
LSCON,1
LSCON,3
LSCON,3
LSCON,0
LSCON,3
LSCON,2
LSCON,2
LSCON,1
LSCON,1
LSCON,2
LSCON,4
LSCON,3
LSCON,1
LSCON,2
LSCON,0
LSCON,1
LSCON,2
LSCON,3
LSCON,0
LSCON,3
LSCON,1
LSCON,0
LSCON,3
LSCON,5
LSCON,0
LSCON,1
LSCON,1
LSCON,0
LSCON,1
LSCON,1
LSCON,0
LSCON,1
LSCON,2
LSCON,2
LSCON,1
